[
    {
        "@address": "\n423 S 13th St, Omaha, 68102\n",
        "@category": "Category: Antique & Salvage\n",
        "@facebook": "",
        "@id": 1,
        "@name": "The Imaginarium\n",
        "@phone": "\n",
        "@storeUrl": "",
        "@url": "http://shoplocalomaha.com/website/info_page.jsp?id=14259",
        "json_class": "Store"
    },
    {
        "@address": "\n423 S 13th St, Omaha, 68102\n",
        "@category": "Category: Antique & Salvage\n",
        "@facebook": "",
        "@id": 2,
        "@name": "The Imaginarium\n",
        "@phone": "\n",
        "@storeUrl": "",
        "@url": "http://shoplocalomaha.com/website/info_page.jsp?id=14259",
        "json_class": "Store"
    },
    {
        "@address": "\n423 S 13th St, Omaha, 68102\n",
        "@category": "Category: Antique & Salvage\n",
        "@facebook": "",
        "@id": 3,
        "@name": "The Imaginarium\n",
        "@phone": "\n",
        "@storeUrl": "",
        "@url": "http://shoplocalomaha.com/website/info_page.jsp?id=14259",
        "json_class": "Store"
    },
    {
        "@address": "\n8600 Cass Street, Omaha, Nebraska 68114\n",
        "@category": "Category: Art Supplies\n",
        "@facebook": "",
        "@id": 4,
        "@name": "Personal Threads Boutique\n",
        "@phone": "(402) 391-7733\n",
        "@storeUrl": "http://www.personalthreads.com\n",
        "@url": "http://shoplocalomaha.com/website/info_page.jsp?id=10980",
        "json_class": "Store"
    },
    {
        "@address": "\n8600 Cass Street, Omaha, Nebraska 68114\n",
        "@category": "Category: Art Supplies\n",
        "@facebook": "",
        "@id": 5,
        "@name": "Personal Threads Boutique\n",
        "@phone": "(402) 391-7733\n",
        "@storeUrl": "http://www.personalthreads.com\n",
        "@url": "http://shoplocalomaha.com/website/info_page.jsp?id=10980",
        "json_class": "Store"
    },
    {
        "@address": "\n8600 Cass Street, Omaha, Nebraska 68114\n",
        "@category": "Category: Art Supplies\n",
        "@facebook": "",
        "@id": 6,
        "@name": "Personal Threads Boutique\n",
        "@phone": "(402) 391-7733\n",
        "@storeUrl": "http://www.personalthreads.com\n",
        "@url": "http://shoplocalomaha.com/website/info_page.jsp?id=10980",
        "json_class": "Store"
    },
    {
        "@address": "\n2518 South 132nd Street, Omaha, Nebraska 68144\n",
        "@category": "Category: Arts & Art Gallery\n",
        "@facebook": "<a class=\"contact_item facebook\" target=\"_blank\" href=\"https://www.facebook.com/itsyourspottery\">Facebook</a>",
        "@id": 7,
        "@name": "It's Yours Pottery\n",
        "@phone": "402-330.3470\n",
        "@storeUrl": "http://www.itsyourspottery.com\n",
        "@url": "http://shoplocalomaha.com/website/info_page.jsp?id=10964",
        "json_class": "Store"
    },
    {
        "@address": "\n2518 South 132nd Street, Omaha, Nebraska 68144\n",
        "@category": "Category: Arts & Art Gallery\n",
        "@facebook": "<a class=\"contact_item facebook\" target=\"_blank\" href=\"https://www.facebook.com/itsyourspottery\">Facebook</a>",
        "@id": 8,
        "@name": "It's Yours Pottery\n",
        "@phone": "402-330.3470\n",
        "@storeUrl": "http://www.itsyourspottery.com\n",
        "@url": "http://shoplocalomaha.com/website/info_page.jsp?id=10964",
        "json_class": "Store"
    },
    {
        "@address": "\n2518 South 132nd Street, Omaha, Nebraska 68144\n",
        "@category": "Category: Arts & Art Gallery\n",
        "@facebook": "<a class=\"contact_item facebook\" target=\"_blank\" href=\"https://www.facebook.com/itsyourspottery\">Facebook</a>",
        "@id": 9,
        "@name": "It's Yours Pottery\n",
        "@phone": "402-330.3470\n",
        "@storeUrl": "http://www.itsyourspottery.com\n",
        "@url": "http://shoplocalomaha.com/website/info_page.jsp?id=10964",
        "json_class": "Store"
    },
    {
        "@address": "\n8600 Cass Street , Omaha, Nebraska 68114\n",
        "@category": "Category: Arts & Art Gallery\n",
        "@facebook": "",
        "@id": 10,
        "@name": "Lewis Art Gallery\n",
        "@phone": "(402) 391-7733\n",
        "@storeUrl": "http://www.lewisartgallery.com\n",
        "@url": "http://shoplocalomaha.com/website/info_page.jsp?id=10968",
        "json_class": "Store"
    },
    {
        "@address": "\n8600 Cass Street , Omaha, Nebraska 68114\n",
        "@category": "Category: Arts & Art Gallery\n",
        "@facebook": "",
        "@id": 11,
        "@name": "Lewis Art Gallery\n",
        "@phone": "(402) 391-7733\n",
        "@storeUrl": "http://www.lewisartgallery.com\n",
        "@url": "http://shoplocalomaha.com/website/info_page.jsp?id=10968",
        "json_class": "Store"
    },
    {
        "@address": "\n8600 Cass Street , Omaha, Nebraska 68114\n",
        "@category": "Category: Arts & Art Gallery\n",
        "@facebook": "",
        "@id": 12,
        "@name": "Lewis Art Gallery\n",
        "@phone": "(402) 391-7733\n",
        "@storeUrl": "http://www.lewisartgallery.com\n",
        "@url": "http://shoplocalomaha.com/website/info_page.jsp?id=10968",
        "json_class": "Store"
    },
    {
        "@address": "\n301 North 78th Street , Omaha, Nebraska 68114\n",
        "@category": "Category: Arts & Art Gallery\n",
        "@facebook": "",
        "@id": 13,
        "@name": "Malibu Gallery\n",
        "@phone": "(402) 391-4628\n",
        "@storeUrl": "http://www.malibugalleries.com/\n",
        "@url": "http://shoplocalomaha.com/website/info_page.jsp?id=10971",
        "json_class": "Store"
    },
    {
        "@address": "\n301 North 78th Street , Omaha, Nebraska 68114\n",
        "@category": "Category: Arts & Art Gallery\n",
        "@facebook": "",
        "@id": 14,
        "@name": "Malibu Gallery\n",
        "@phone": "(402) 391-4628\n",
        "@storeUrl": "http://www.malibugalleries.com/\n",
        "@url": "http://shoplocalomaha.com/website/info_page.jsp?id=10971",
        "json_class": "Store"
    },
    {
        "@address": "\n301 North 78th Street , Omaha, Nebraska 68114\n",
        "@category": "Category: Arts & Art Gallery\n",
        "@facebook": "",
        "@id": 15,
        "@name": "Malibu Gallery\n",
        "@phone": "(402) 391-4628\n",
        "@storeUrl": "http://www.malibugalleries.com/\n",
        "@url": "http://shoplocalomaha.com/website/info_page.jsp?id=10971",
        "json_class": "Store"
    },
    {
        "@address": "\n1034 Howard Street, Omaha, Nebraska 68102\n",
        "@category": "Category: Arts & Art Gallery\n",
        "@facebook": "",
        "@id": 16,
        "@name": "Old Market Artists Gallery\n",
        "@phone": "402-346-6569\n",
        "@storeUrl": "http://www.oldmarketartists.net\n",
        "@url": "http://shoplocalomaha.com/website/info_page.jsp?id=10977",
        "json_class": "Store"
    },
    {
        "@address": "\n1034 Howard Street, Omaha, Nebraska 68102\n",
        "@category": "Category: Arts & Art Gallery\n",
        "@facebook": "",
        "@id": 17,
        "@name": "Old Market Artists Gallery\n",
        "@phone": "402-346-6569\n",
        "@storeUrl": "http://www.oldmarketartists.net\n",
        "@url": "http://shoplocalomaha.com/website/info_page.jsp?id=10977",
        "json_class": "Store"
    },
    {
        "@address": "\n1034 Howard Street, Omaha, Nebraska 68102\n",
        "@category": "Category: Arts & Art Gallery\n",
        "@facebook": "",
        "@id": 18,
        "@name": "Old Market Artists Gallery\n",
        "@phone": "402-346-6569\n",
        "@storeUrl": "http://www.oldmarketartists.net\n",
        "@url": "http://shoplocalomaha.com/website/info_page.jsp?id=10977",
        "json_class": "Store"
    },
    {
        "@address": "\n1034 Howard Street, Omaha, Nebraska 68102\n",
        "@category": "Category: Arts & Art Gallery\n",
        "@facebook": "",
        "@id": 19,
        "@name": "Oldmarket Artists Co-Op Gallery\n",
        "@phone": "402-346-6569\n",
        "@storeUrl": "http://www.oldmarketartists.com\n",
        "@url": "http://shoplocalomaha.com/website/info_page.jsp?id=22810",
        "json_class": "Store"
    },
    {
        "@address": "\n1034 Howard Street, Omaha, Nebraska 68102\n",
        "@category": "Category: Arts & Art Gallery\n",
        "@facebook": "",
        "@id": 20,
        "@name": "Oldmarket Artists Co-Op Gallery\n",
        "@phone": "402-346-6569\n",
        "@storeUrl": "http://www.oldmarketartists.com\n",
        "@url": "http://shoplocalomaha.com/website/info_page.jsp?id=22810",
        "json_class": "Store"
    },
    {
        "@address": "\n1034 Howard Street, Omaha, Nebraska 68102\n",
        "@category": "Category: Arts & Art Gallery\n",
        "@facebook": "",
        "@id": 21,
        "@name": "Oldmarket Artists Co-Op Gallery\n",
        "@phone": "402-346-6569\n",
        "@storeUrl": "http://www.oldmarketartists.com\n",
        "@url": "http://shoplocalomaha.com/website/info_page.jsp?id=22810",
        "json_class": "Store"
    },
    {
        "@address": "\n417 s 11 th Street, Omaha, Nebraska 68102\n",
        "@category": "Category: Arts & Art Gallery\n",
        "@facebook": "",
        "@id": 22,
        "@name": "Passageway Gallery\n",
        "@phone": "402-341-1910\n",
        "@storeUrl": "http://www.PassagewayGallery.com\n",
        "@url": "http://shoplocalomaha.com/website/info_page.jsp?id=12386",
        "json_class": "Store"
    },
    {
        "@address": "\n417 s 11 th Street, Omaha, Nebraska 68102\n",
        "@category": "Category: Arts & Art Gallery\n",
        "@facebook": "",
        "@id": 23,
        "@name": "Passageway Gallery\n",
        "@phone": "402-341-1910\n",
        "@storeUrl": "http://www.PassagewayGallery.com\n",
        "@url": "http://shoplocalomaha.com/website/info_page.jsp?id=12386",
        "json_class": "Store"
    },
    {
        "@address": "\n417 s 11 th Street, Omaha, Nebraska 68102\n",
        "@category": "Category: Arts & Art Gallery\n",
        "@facebook": "",
        "@id": 24,
        "@name": "Passageway Gallery\n",
        "@phone": "402-341-1910\n",
        "@storeUrl": "http://www.PassagewayGallery.com\n",
        "@url": "http://shoplocalomaha.com/website/info_page.jsp?id=12386",
        "json_class": "Store"
    },
    {
        "@address": "\n2340 S. 156th Circle, Omaha, Nebraska 68130\n",
        "@category": "Category: Arts & Art Gallery\n",
        "@facebook": "",
        "@id": 25,
        "@name": "Smiling Turtle Art Spot\n",
        "@phone": "402-315-9452\n",
        "@storeUrl": "http://www.smilingturtleartspot.com\n",
        "@url": "http://shoplocalomaha.com/website/info_page.jsp?id=13831",
        "json_class": "Store"
    },
    {
        "@address": "\n2340 S. 156th Circle, Omaha, Nebraska 68130\n",
        "@category": "Category: Arts & Art Gallery\n",
        "@facebook": "",
        "@id": 26,
        "@name": "Smiling Turtle Art Spot\n",
        "@phone": "402-315-9452\n",
        "@storeUrl": "http://www.smilingturtleartspot.com\n",
        "@url": "http://shoplocalomaha.com/website/info_page.jsp?id=13831",
        "json_class": "Store"
    },
    {
        "@address": "\n2340 S. 156th Circle, Omaha, Nebraska 68130\n",
        "@category": "Category: Arts & Art Gallery\n",
        "@facebook": "",
        "@id": 27,
        "@name": "Smiling Turtle Art Spot\n",
        "@phone": "402-315-9452\n",
        "@storeUrl": "http://www.smilingturtleartspot.com\n",
        "@url": "http://shoplocalomaha.com/website/info_page.jsp?id=13831",
        "json_class": "Store"
    },
    {
        "@address": "\n1032 Howard Street , Omaha, Nebraska 68102\n",
        "@category": "Category: Arts & Art Gallery\n",
        "@facebook": "",
        "@id": 28,
        "@name": "White Crane Gallery\n",
        "@phone": "402-345-1066\n",
        "@storeUrl": "http://www.whitecraneomaha.com\n",
        "@url": "http://shoplocalomaha.com/website/info_page.jsp?id=10993",
        "json_class": "Store"
    },
    {
        "@address": "\n1032 Howard Street , Omaha, Nebraska 68102\n",
        "@category": "Category: Arts & Art Gallery\n",
        "@facebook": "",
        "@id": 29,
        "@name": "White Crane Gallery\n",
        "@phone": "402-345-1066\n",
        "@storeUrl": "http://www.whitecraneomaha.com\n",
        "@url": "http://shoplocalomaha.com/website/info_page.jsp?id=10993",
        "json_class": "Store"
    },
    {
        "@address": "\n1032 Howard Street , Omaha, Nebraska 68102\n",
        "@category": "Category: Arts & Art Gallery\n",
        "@facebook": "",
        "@id": 30,
        "@name": "White Crane Gallery\n",
        "@phone": "402-345-1066\n",
        "@storeUrl": "http://www.whitecraneomaha.com\n",
        "@url": "http://shoplocalomaha.com/website/info_page.jsp?id=10993",
        "json_class": "Store"
    },
    {
        "@address": "\n10918 J Street, Omaha, Nebraska 68137\n",
        "@category": "Category: Auto\n",
        "@facebook": "",
        "@id": 31,
        "@name": "Omaha Glass\n",
        "@phone": "\n",
        "@storeUrl": "http://www.omaha-cbglass.com\n",
        "@url": "http://shoplocalomaha.com/website/info_page.jsp?id=10978",
        "json_class": "Store"
    },
    {
        "@address": "\n10918 J Street, Omaha, Nebraska 68137\n",
        "@category": "Category: Auto\n",
        "@facebook": "",
        "@id": 32,
        "@name": "Omaha Glass\n",
        "@phone": "\n",
        "@storeUrl": "http://www.omaha-cbglass.com\n",
        "@url": "http://shoplocalomaha.com/website/info_page.jsp?id=10978",
        "json_class": "Store"
    },
    {
        "@address": "\n10918 J Street, Omaha, Nebraska 68137\n",
        "@category": "Category: Auto\n",
        "@facebook": "",
        "@id": 33,
        "@name": "Omaha Glass\n",
        "@phone": "\n",
        "@storeUrl": "http://www.omaha-cbglass.com\n",
        "@url": "http://shoplocalomaha.com/website/info_page.jsp?id=10978",
        "json_class": "Store"
    },
    {
        "@address": "\n5015 Underwood Avenue , Omaha, Nebraska 68132\n",
        "@category": "Category: Bank/Credit Union\n",
        "@facebook": "",
        "@id": 34,
        "@name": "Dundee Bank\n",
        "@phone": "(402) 504-4000\n",
        "@storeUrl": "http://www.dundeebanking.com\n",
        "@url": "http://shoplocalomaha.com/website/info_page.jsp?id=10957",
        "json_class": "Store"
    },
    {
        "@address": "\n5015 Underwood Avenue , Omaha, Nebraska 68132\n",
        "@category": "Category: Bank/Credit Union\n",
        "@facebook": "",
        "@id": 35,
        "@name": "Dundee Bank\n",
        "@phone": "(402) 504-4000\n",
        "@storeUrl": "http://www.dundeebanking.com\n",
        "@url": "http://shoplocalomaha.com/website/info_page.jsp?id=10957",
        "json_class": "Store"
    },
    {
        "@address": "\n5015 Underwood Avenue , Omaha, Nebraska 68132\n",
        "@category": "Category: Bank/Credit Union\n",
        "@facebook": "",
        "@id": 36,
        "@name": "Dundee Bank\n",
        "@phone": "(402) 504-4000\n",
        "@storeUrl": "http://www.dundeebanking.com\n",
        "@url": "http://shoplocalomaha.com/website/info_page.jsp?id=10957",
        "json_class": "Store"
    },
    {
        "@address": "\n1515 Jackson st, Omaha, Nebraska 68134\n",
        "@category": "Category: Bar\n",
        "@facebook": "",
        "@id": 37,
        "@name": "Be Social Bar and Grille\n",
        "@phone": "4027700711\n",
        "@storeUrl": "",
        "@url": "http://shoplocalomaha.com/website/info_page.jsp?id=22668",
        "json_class": "Store"
    },
    {
        "@address": "\n1515 Jackson st, Omaha, Nebraska 68134\n",
        "@category": "Category: Bar\n",
        "@facebook": "",
        "@id": 38,
        "@name": "Be Social Bar and Grille\n",
        "@phone": "4027700711\n",
        "@storeUrl": "",
        "@url": "http://shoplocalomaha.com/website/info_page.jsp?id=22668",
        "json_class": "Store"
    },
    {
        "@address": "\n1515 Jackson st, Omaha, Nebraska 68134\n",
        "@category": "Category: Bar\n",
        "@facebook": "",
        "@id": 39,
        "@name": "Be Social Bar and Grille\n",
        "@phone": "4027700711\n",
        "@storeUrl": "",
        "@url": "http://shoplocalomaha.com/website/info_page.jsp?id=22668",
        "json_class": "Store"
    },
    {
        "@address": "\n518 S. 10th St., Omaha, Nebraska 68102\n",
        "@category": "Category: Beauty & Wellness\n",
        "@facebook": "<a class=\"contact_item facebook\" target=\"_blank\" href=\"https://www.facebook.com/curbappealsalonandspa\">Facebook</a>",
        "@id": 40,
        "@name": "Curb Appeal Salon & Spa\n",
        "@phone": "402-345-0404\n",
        "@storeUrl": "http://www.curbappealsalonandspa.com\n",
        "@url": "http://shoplocalomaha.com/website/info_page.jsp?id=11220",
        "json_class": "Store"
    },
    {
        "@address": "\n518 S. 10th St., Omaha, Nebraska 68102\n",
        "@category": "Category: Beauty & Wellness\n",
        "@facebook": "<a class=\"contact_item facebook\" target=\"_blank\" href=\"https://www.facebook.com/curbappealsalonandspa\">Facebook</a>",
        "@id": 41,
        "@name": "Curb Appeal Salon & Spa\n",
        "@phone": "402-345-0404\n",
        "@storeUrl": "http://www.curbappealsalonandspa.com\n",
        "@url": "http://shoplocalomaha.com/website/info_page.jsp?id=11220",
        "json_class": "Store"
    },
    {
        "@address": "\n518 S. 10th St., Omaha, Nebraska 68102\n",
        "@category": "Category: Beauty & Wellness\n",
        "@facebook": "<a class=\"contact_item facebook\" target=\"_blank\" href=\"https://www.facebook.com/curbappealsalonandspa\">Facebook</a>",
        "@id": 42,
        "@name": "Curb Appeal Salon & Spa\n",
        "@phone": "402-345-0404\n",
        "@storeUrl": "http://www.curbappealsalonandspa.com\n",
        "@url": "http://shoplocalomaha.com/website/info_page.jsp?id=11220",
        "json_class": "Store"
    },
    {
        "@address": "\n1026 Jackson St., Omaha, Nebraska 68102\n",
        "@category": "Category: Book Store\n",
        "@facebook": "",
        "@id": 43,
        "@name": "Soul Desires at Urban Abbey\n",
        "@phone": "402-898-7600\n",
        "@storeUrl": "http://www.soul-desires.com\n",
        "@url": "http://shoplocalomaha.com/website/info_page.jsp?id=10986",
        "json_class": "Store"
    },
    {
        "@address": "\n1026 Jackson St., Omaha, Nebraska 68102\n",
        "@category": "Category: Book Store\n",
        "@facebook": "",
        "@id": 44,
        "@name": "Soul Desires at Urban Abbey\n",
        "@phone": "402-898-7600\n",
        "@storeUrl": "http://www.soul-desires.com\n",
        "@url": "http://shoplocalomaha.com/website/info_page.jsp?id=10986",
        "json_class": "Store"
    },
    {
        "@address": "\n1026 Jackson St., Omaha, Nebraska 68102\n",
        "@category": "Category: Book Store\n",
        "@facebook": "",
        "@id": 45,
        "@name": "Soul Desires at Urban Abbey\n",
        "@phone": "402-898-7600\n",
        "@storeUrl": "http://www.soul-desires.com\n",
        "@url": "http://shoplocalomaha.com/website/info_page.jsp?id=10986",
        "json_class": "Store"
    },
    {
        "@address": "\n2501 South 90th St, Omaha, NE, Nebraska 68114\n",
        "@category": "Category: Book Store\n",
        "@facebook": "<a class=\"contact_item facebook\" target=\"_blank\" href=\"https://www.facebook.com/bookwormomahachildrens\">Facebook</a>",
        "@id": 46,
        "@name": "The Bookworm\n",
        "@phone": "402-392-2877\n",
        "@storeUrl": "http://www.bookwormomaha.com\n",
        "@url": "http://shoplocalomaha.com/website/info_page.jsp?id=10989",
        "json_class": "Store"
    },
    {
        "@address": "\n2501 South 90th St, Omaha, NE, Nebraska 68114\n",
        "@category": "Category: Book Store\n",
        "@facebook": "<a class=\"contact_item facebook\" target=\"_blank\" href=\"https://www.facebook.com/bookwormomahachildrens\">Facebook</a>",
        "@id": 47,
        "@name": "The Bookworm\n",
        "@phone": "402-392-2877\n",
        "@storeUrl": "http://www.bookwormomaha.com\n",
        "@url": "http://shoplocalomaha.com/website/info_page.jsp?id=10989",
        "json_class": "Store"
    },
    {
        "@address": "\n2501 South 90th St, Omaha, NE, Nebraska 68114\n",
        "@category": "Category: Book Store\n",
        "@facebook": "<a class=\"contact_item facebook\" target=\"_blank\" href=\"https://www.facebook.com/bookwormomahachildrens\">Facebook</a>",
        "@id": 48,
        "@name": "The Bookworm\n",
        "@phone": "402-392-2877\n",
        "@storeUrl": "http://www.bookwormomaha.com\n",
        "@url": "http://shoplocalomaha.com/website/info_page.jsp?id=10989",
        "json_class": "Store"
    },
    {
        "@address": "\n2718 South 123rd Court, Omaha, Nebraska 68144\n",
        "@category": "Category: Candy Store\n",
        "@facebook": "",
        "@id": 49,
        "@name": "Candy Wrappers\n",
        "@phone": "(402) 697-0306\n",
        "@storeUrl": "http://www.omahacandy.com\n",
        "@url": "http://shoplocalomaha.com/website/info_page.jsp?id=10955",
        "json_class": "Store"
    },
    {
        "@address": "\n2718 South 123rd Court, Omaha, Nebraska 68144\n",
        "@category": "Category: Candy Store\n",
        "@facebook": "",
        "@id": 50,
        "@name": "Candy Wrappers\n",
        "@phone": "(402) 697-0306\n",
        "@storeUrl": "http://www.omahacandy.com\n",
        "@url": "http://shoplocalomaha.com/website/info_page.jsp?id=10955",
        "json_class": "Store"
    },
    {
        "@address": "\n2718 South 123rd Court, Omaha, Nebraska 68144\n",
        "@category": "Category: Candy Store\n",
        "@facebook": "",
        "@id": 51,
        "@name": "Candy Wrappers\n",
        "@phone": "(402) 697-0306\n",
        "@storeUrl": "http://www.omahacandy.com\n",
        "@url": "http://shoplocalomaha.com/website/info_page.jsp?id=10955",
        "json_class": "Store"
    },
    {
        "@address": "\n1105 Howard St., Omaha, Nebraska 68108\n",
        "@category": "Category: Casual Dining\n",
        "@facebook": "",
        "@id": 52,
        "@name": "Spaghetti Works\n",
        "@phone": "402-422-0770\n",
        "@storeUrl": "http://www.spagworks.com\n",
        "@url": "http://shoplocalomaha.com/website/info_page.jsp?id=11321",
        "json_class": "Store"
    },
    {
        "@address": "\n1105 Howard St., Omaha, Nebraska 68108\n",
        "@category": "Category: Casual Dining\n",
        "@facebook": "",
        "@id": 53,
        "@name": "Spaghetti Works\n",
        "@phone": "402-422-0770\n",
        "@storeUrl": "http://www.spagworks.com\n",
        "@url": "http://shoplocalomaha.com/website/info_page.jsp?id=11321",
        "json_class": "Store"
    },
    {
        "@address": "\n1105 Howard St., Omaha, Nebraska 68108\n",
        "@category": "Category: Casual Dining\n",
        "@facebook": "",
        "@id": 54,
        "@name": "Spaghetti Works\n",
        "@phone": "402-422-0770\n",
        "@storeUrl": "http://www.spagworks.com\n",
        "@url": "http://shoplocalomaha.com/website/info_page.jsp?id=11321",
        "json_class": "Store"
    },
    {
        "@address": "\n10915 Prairie Brook Rd, Omaha, 68144\n",
        "@category": "Category: Children\n",
        "@facebook": "",
        "@id": 55,
        "@name": "Baby Junk\n",
        "@phone": "\n",
        "@storeUrl": "",
        "@url": "http://shoplocalomaha.com/website/info_page.jsp?id=14267",
        "json_class": "Store"
    },
    {
        "@address": "\n10915 Prairie Brook Rd, Omaha, 68144\n",
        "@category": "Category: Children\n",
        "@facebook": "",
        "@id": 56,
        "@name": "Baby Junk\n",
        "@phone": "\n",
        "@storeUrl": "",
        "@url": "http://shoplocalomaha.com/website/info_page.jsp?id=14267",
        "json_class": "Store"
    },
    {
        "@address": "\n10915 Prairie Brook Rd, Omaha, 68144\n",
        "@category": "Category: Children\n",
        "@facebook": "",
        "@id": 57,
        "@name": "Baby Junk\n",
        "@phone": "\n",
        "@storeUrl": "",
        "@url": "http://shoplocalomaha.com/website/info_page.jsp?id=14267",
        "json_class": "Store"
    },
    {
        "@address": "\n3510 N 167th Cir , Omaha, 68116\n",
        "@category": "Category: Children\n",
        "@facebook": "",
        "@id": 58,
        "@name": "Bigwheels 2 Butterflys\n",
        "@phone": "\n",
        "@storeUrl": "",
        "@url": "http://shoplocalomaha.com/website/info_page.jsp?id=14261",
        "json_class": "Store"
    },
    {
        "@address": "\n3510 N 167th Cir , Omaha, 68116\n",
        "@category": "Category: Children\n",
        "@facebook": "",
        "@id": 59,
        "@name": "Bigwheels 2 Butterflys\n",
        "@phone": "\n",
        "@storeUrl": "",
        "@url": "http://shoplocalomaha.com/website/info_page.jsp?id=14261",
        "json_class": "Store"
    },
    {
        "@address": "\n3510 N 167th Cir , Omaha, 68116\n",
        "@category": "Category: Children\n",
        "@facebook": "",
        "@id": 60,
        "@name": "Bigwheels 2 Butterflys\n",
        "@phone": "\n",
        "@storeUrl": "",
        "@url": "http://shoplocalomaha.com/website/info_page.jsp?id=14261",
        "json_class": "Store"
    },
    {
        "@address": "\n16909 Burke St #131, Omaha, 68118\n",
        "@category": "Category: Children\n",
        "@facebook": "",
        "@id": 61,
        "@name": "Fat Brain Toys\n",
        "@phone": "\n",
        "@storeUrl": "",
        "@url": "http://shoplocalomaha.com/website/info_page.jsp?id=14260",
        "json_class": "Store"
    },
    {
        "@address": "\n16909 Burke St #131, Omaha, 68118\n",
        "@category": "Category: Children\n",
        "@facebook": "",
        "@id": 62,
        "@name": "Fat Brain Toys\n",
        "@phone": "\n",
        "@storeUrl": "",
        "@url": "http://shoplocalomaha.com/website/info_page.jsp?id=14260",
        "json_class": "Store"
    },
    {
        "@address": "\n16909 Burke St #131, Omaha, 68118\n",
        "@category": "Category: Children\n",
        "@facebook": "",
        "@id": 63,
        "@name": "Fat Brain Toys\n",
        "@phone": "\n",
        "@storeUrl": "",
        "@url": "http://shoplocalomaha.com/website/info_page.jsp?id=14260",
        "json_class": "Store"
    },
    {
        "@address": "\n421 S 11th St, Omaha, 68102\n",
        "@category": "Category: Children\n",
        "@facebook": "",
        "@id": 64,
        "@name": "Le Wonderment\n",
        "@phone": "\n",
        "@storeUrl": "",
        "@url": "http://shoplocalomaha.com/website/info_page.jsp?id=14266",
        "json_class": "Store"
    },
    {
        "@address": "\n421 S 11th St, Omaha, 68102\n",
        "@category": "Category: Children\n",
        "@facebook": "",
        "@id": 65,
        "@name": "Le Wonderment\n",
        "@phone": "\n",
        "@storeUrl": "",
        "@url": "http://shoplocalomaha.com/website/info_page.jsp?id=14266",
        "json_class": "Store"
    },
    {
        "@address": "\n421 S 11th St, Omaha, 68102\n",
        "@category": "Category: Children\n",
        "@facebook": "",
        "@id": 66,
        "@name": "Le Wonderment\n",
        "@phone": "\n",
        "@storeUrl": "",
        "@url": "http://shoplocalomaha.com/website/info_page.jsp?id=14266",
        "json_class": "Store"
    },
    {
        "@address": "\n2283 S. 67th St., Omaha, Nebraska 68106\n",
        "@category": "Category: Children\n",
        "@facebook": "",
        "@id": 67,
        "@name": "Learning HQ\n",
        "@phone": "402-763-8455\n",
        "@storeUrl": "http://www.learninghq.com\n",
        "@url": "http://shoplocalomaha.com/website/info_page.jsp?id=10967",
        "json_class": "Store"
    },
    {
        "@address": "\n2283 S. 67th St., Omaha, Nebraska 68106\n",
        "@category": "Category: Children\n",
        "@facebook": "",
        "@id": 68,
        "@name": "Learning HQ\n",
        "@phone": "402-763-8455\n",
        "@storeUrl": "http://www.learninghq.com\n",
        "@url": "http://shoplocalomaha.com/website/info_page.jsp?id=10967",
        "json_class": "Store"
    },
    {
        "@address": "\n2283 S. 67th St., Omaha, Nebraska 68106\n",
        "@category": "Category: Children\n",
        "@facebook": "",
        "@id": 69,
        "@name": "Learning HQ\n",
        "@phone": "402-763-8455\n",
        "@storeUrl": "http://www.learninghq.com\n",
        "@url": "http://shoplocalomaha.com/website/info_page.jsp?id=10967",
        "json_class": "Store"
    },
    {
        "@address": "\n717 North 114th Street, Omaha, Nebraska 68154\n",
        "@category": "Category: Clothing\n",
        "@facebook": "<a class=\"contact_item facebook\" target=\"_blank\" href=\"https://www.facebook.com/BelAirFashions\">Facebook</a>",
        "@id": 70,
        "@name": "Bel Air Fashions\n",
        "@phone": "402-493-5160\n",
        "@storeUrl": "http://www.belairfashions.com\n",
        "@url": "http://shoplocalomaha.com/website/info_page.jsp?id=13858",
        "json_class": "Store"
    },
    {
        "@address": "\n717 North 114th Street, Omaha, Nebraska 68154\n",
        "@category": "Category: Clothing\n",
        "@facebook": "<a class=\"contact_item facebook\" target=\"_blank\" href=\"https://www.facebook.com/BelAirFashions\">Facebook</a>",
        "@id": 71,
        "@name": "Bel Air Fashions\n",
        "@phone": "402-493-5160\n",
        "@storeUrl": "http://www.belairfashions.com\n",
        "@url": "http://shoplocalomaha.com/website/info_page.jsp?id=13858",
        "json_class": "Store"
    },
    {
        "@address": "\n717 North 114th Street, Omaha, Nebraska 68154\n",
        "@category": "Category: Clothing\n",
        "@facebook": "<a class=\"contact_item facebook\" target=\"_blank\" href=\"https://www.facebook.com/BelAirFashions\">Facebook</a>",
        "@id": 72,
        "@name": "Bel Air Fashions\n",
        "@phone": "402-493-5160\n",
        "@storeUrl": "http://www.belairfashions.com\n",
        "@url": "http://shoplocalomaha.com/website/info_page.jsp?id=13858",
        "json_class": "Store"
    },
    {
        "@address": "\n12100 West Center Road, Omaha, Nebraska 68144\n",
        "@category": "Category: Clothing\n",
        "@facebook": "",
        "@id": 73,
        "@name": "Bliss Boutique\n",
        "@phone": "\n",
        "@storeUrl": "http://shopblissboutique.net\n",
        "@url": "http://shoplocalomaha.com/website/info_page.jsp?id=10951",
        "json_class": "Store"
    },
    {
        "@address": "\n12100 West Center Road, Omaha, Nebraska 68144\n",
        "@category": "Category: Clothing\n",
        "@facebook": "",
        "@id": 74,
        "@name": "Bliss Boutique\n",
        "@phone": "\n",
        "@storeUrl": "http://shopblissboutique.net\n",
        "@url": "http://shoplocalomaha.com/website/info_page.jsp?id=10951",
        "json_class": "Store"
    },
    {
        "@address": "\n12100 West Center Road, Omaha, Nebraska 68144\n",
        "@category": "Category: Clothing\n",
        "@facebook": "",
        "@id": 75,
        "@name": "Bliss Boutique\n",
        "@phone": "\n",
        "@storeUrl": "http://shopblissboutique.net\n",
        "@url": "http://shoplocalomaha.com/website/info_page.jsp?id=10951",
        "json_class": "Store"
    },
    {
        "@address": "\n4914 Underwood Avenue, Omaha, Nebraska 68132\n",
        "@category": "Category: Clothing\n",
        "@facebook": "",
        "@id": 76,
        "@name": "Denim Saloon\n",
        "@phone": "402-885-8880\n",
        "@storeUrl": "http://www.denimsaloon.com\n",
        "@url": "http://shoplocalomaha.com/website/info_page.jsp?id=10956",
        "json_class": "Store"
    },
    {
        "@address": "\n4914 Underwood Avenue, Omaha, Nebraska 68132\n",
        "@category": "Category: Clothing\n",
        "@facebook": "",
        "@id": 77,
        "@name": "Denim Saloon\n",
        "@phone": "402-885-8880\n",
        "@storeUrl": "http://www.denimsaloon.com\n",
        "@url": "http://shoplocalomaha.com/website/info_page.jsp?id=10956",
        "json_class": "Store"
    },
    {
        "@address": "\n4914 Underwood Avenue, Omaha, Nebraska 68132\n",
        "@category": "Category: Clothing\n",
        "@facebook": "",
        "@id": 78,
        "@name": "Denim Saloon\n",
        "@phone": "402-885-8880\n",
        "@storeUrl": "http://www.denimsaloon.com\n",
        "@url": "http://shoplocalomaha.com/website/info_page.jsp?id=10956",
        "json_class": "Store"
    },
    {
        "@address": "\n8014 Dodge Street , Omaha, Nebraska 68114\n",
        "@category": "Category: Clothing\n",
        "@facebook": "",
        "@id": 79,
        "@name": "Glamour Up\n",
        "@phone": "(909) 546 4475\n",
        "@storeUrl": "http://www.glamourup.com\n",
        "@url": "http://shoplocalomaha.com/website/info_page.jsp?id=10961",
        "json_class": "Store"
    },
    {
        "@address": "\n8014 Dodge Street , Omaha, Nebraska 68114\n",
        "@category": "Category: Clothing\n",
        "@facebook": "",
        "@id": 80,
        "@name": "Glamour Up\n",
        "@phone": "(909) 546 4475\n",
        "@storeUrl": "http://www.glamourup.com\n",
        "@url": "http://shoplocalomaha.com/website/info_page.jsp?id=10961",
        "json_class": "Store"
    },
    {
        "@address": "\n8014 Dodge Street , Omaha, Nebraska 68114\n",
        "@category": "Category: Clothing\n",
        "@facebook": "",
        "@id": 81,
        "@name": "Glamour Up\n",
        "@phone": "(909) 546 4475\n",
        "@storeUrl": "http://www.glamourup.com\n",
        "@url": "http://shoplocalomaha.com/website/info_page.jsp?id=10961",
        "json_class": "Store"
    },
    {
        "@address": "\n521 N 33rd St, Omaha, Nebraska 68131\n",
        "@category": "Category: Clothing\n",
        "@facebook": "",
        "@id": 82,
        "@name": "Maud Boutique\n",
        "@phone": "402-708-3927\n",
        "@storeUrl": "http://maudboutiqueomaha.com\n",
        "@url": "http://shoplocalomaha.com/website/info_page.jsp?id=10973",
        "json_class": "Store"
    },
    {
        "@address": "\n521 N 33rd St, Omaha, Nebraska 68131\n",
        "@category": "Category: Clothing\n",
        "@facebook": "",
        "@id": 83,
        "@name": "Maud Boutique\n",
        "@phone": "402-708-3927\n",
        "@storeUrl": "http://maudboutiqueomaha.com\n",
        "@url": "http://shoplocalomaha.com/website/info_page.jsp?id=10973",
        "json_class": "Store"
    },
    {
        "@address": "\n521 N 33rd St, Omaha, Nebraska 68131\n",
        "@category": "Category: Clothing\n",
        "@facebook": "",
        "@id": 84,
        "@name": "Maud Boutique\n",
        "@phone": "402-708-3927\n",
        "@storeUrl": "http://maudboutiqueomaha.com\n",
        "@url": "http://shoplocalomaha.com/website/info_page.jsp?id=10973",
        "json_class": "Store"
    },
    {
        "@address": "\n1118 Howard St, Omaha, 68102\n",
        "@category": "Category: Coffee Shop\n",
        "@facebook": "",
        "@id": 85,
        "@name": "The Tea Smith\n",
        "@phone": "\n",
        "@storeUrl": "",
        "@url": "http://shoplocalomaha.com/website/info_page.jsp?id=14262",
        "json_class": "Store"
    },
    {
        "@address": "\n1118 Howard St, Omaha, 68102\n",
        "@category": "Category: Coffee Shop\n",
        "@facebook": "",
        "@id": 86,
        "@name": "The Tea Smith\n",
        "@phone": "\n",
        "@storeUrl": "",
        "@url": "http://shoplocalomaha.com/website/info_page.jsp?id=14262",
        "json_class": "Store"
    },
    {
        "@address": "\n1118 Howard St, Omaha, 68102\n",
        "@category": "Category: Coffee Shop\n",
        "@facebook": "",
        "@id": 87,
        "@name": "The Tea Smith\n",
        "@phone": "\n",
        "@storeUrl": "",
        "@url": "http://shoplocalomaha.com/website/info_page.jsp?id=14262",
        "json_class": "Store"
    },
    {
        "@address": "\n6825 Pine Street, Omaha, Nebraska 68106\n",
        "@category": "Category: Education\n",
        "@facebook": "",
        "@id": 88,
        "@name": "Interface Web School\n",
        "@phone": "402-301-8814\n",
        "@storeUrl": "http://www.interfaceschool.com\n",
        "@url": "http://shoplocalomaha.com/website/info_page.jsp?id=16488",
        "json_class": "Store"
    },
    {
        "@address": "\n6825 Pine Street, Omaha, Nebraska 68106\n",
        "@category": "Category: Education\n",
        "@facebook": "",
        "@id": 89,
        "@name": "Interface Web School\n",
        "@phone": "402-301-8814\n",
        "@storeUrl": "http://www.interfaceschool.com\n",
        "@url": "http://shoplocalomaha.com/website/info_page.jsp?id=16488",
        "json_class": "Store"
    },
    {
        "@address": "\n6825 Pine Street, Omaha, Nebraska 68106\n",
        "@category": "Category: Education\n",
        "@facebook": "",
        "@id": 90,
        "@name": "Interface Web School\n",
        "@phone": "402-301-8814\n",
        "@storeUrl": "http://www.interfaceschool.com\n",
        "@url": "http://shoplocalomaha.com/website/info_page.jsp?id=16488",
        "json_class": "Store"
    },
    {
        "@address": "\n2110 South 67th Street , Omaha, Nebraska 68106\n",
        "@category": "Category: Entertainment\n",
        "@facebook": "",
        "@id": 91,
        "@name": "Aksarben Cinema\n",
        "@phone": "\n",
        "@storeUrl": "http://aksarbencinema.com\n",
        "@url": "http://shoplocalomaha.com/website/info_page.jsp?id=10948",
        "json_class": "Store"
    },
    {
        "@address": "\n2110 South 67th Street , Omaha, Nebraska 68106\n",
        "@category": "Category: Entertainment\n",
        "@facebook": "",
        "@id": 92,
        "@name": "Aksarben Cinema\n",
        "@phone": "\n",
        "@storeUrl": "http://aksarbencinema.com\n",
        "@url": "http://shoplocalomaha.com/website/info_page.jsp?id=10948",
        "json_class": "Store"
    },
    {
        "@address": "\n2110 South 67th Street , Omaha, Nebraska 68106\n",
        "@category": "Category: Entertainment\n",
        "@facebook": "",
        "@id": 93,
        "@name": "Aksarben Cinema\n",
        "@phone": "\n",
        "@storeUrl": "http://aksarbencinema.com\n",
        "@url": "http://shoplocalomaha.com/website/info_page.jsp?id=10948",
        "json_class": "Store"
    },
    {
        "@address": "\n7300 Q Street, Ralston, Nebraska 68127\n",
        "@category": "Category: Entertainment\n",
        "@facebook": "",
        "@id": 94,
        "@name": "Ralston Arena\n",
        "@phone": "402-934-9966\n",
        "@storeUrl": "http://www.ralstonarena.com\n",
        "@url": "http://shoplocalomaha.com/website/info_page.jsp?id=13927",
        "json_class": "Store"
    },
    {
        "@address": "\n7300 Q Street, Ralston, Nebraska 68127\n",
        "@category": "Category: Entertainment\n",
        "@facebook": "",
        "@id": 95,
        "@name": "Ralston Arena\n",
        "@phone": "402-934-9966\n",
        "@storeUrl": "http://www.ralstonarena.com\n",
        "@url": "http://shoplocalomaha.com/website/info_page.jsp?id=13927",
        "json_class": "Store"
    },
    {
        "@address": "\n7300 Q Street, Ralston, Nebraska 68127\n",
        "@category": "Category: Entertainment\n",
        "@facebook": "",
        "@id": 96,
        "@name": "Ralston Arena\n",
        "@phone": "402-934-9966\n",
        "@storeUrl": "http://www.ralstonarena.com\n",
        "@url": "http://shoplocalomaha.com/website/info_page.jsp?id=13927",
        "json_class": "Store"
    },
    {
        "@address": "\n",
        "@category": "Category: Event Planning\n",
        "@facebook": "",
        "@id": 97,
        "@name": "A. B. Weddings\n",
        "@phone": "402-709-3923\n",
        "@storeUrl": "http://www.abweddingsomaha.com\n",
        "@url": "http://shoplocalomaha.com/website/info_page.jsp?id=15318",
        "json_class": "Store"
    },
    {
        "@address": "\n",
        "@category": "Category: Event Planning\n",
        "@facebook": "",
        "@id": 98,
        "@name": "A. B. Weddings\n",
        "@phone": "402-709-3923\n",
        "@storeUrl": "http://www.abweddingsomaha.com\n",
        "@url": "http://shoplocalomaha.com/website/info_page.jsp?id=15318",
        "json_class": "Store"
    },
    {
        "@address": "\n",
        "@category": "Category: Event Planning\n",
        "@facebook": "",
        "@id": 99,
        "@name": "A. B. Weddings\n",
        "@phone": "402-709-3923\n",
        "@storeUrl": "http://www.abweddingsomaha.com\n",
        "@url": "http://shoplocalomaha.com/website/info_page.jsp?id=15318",
        "json_class": "Store"
    },
    {
        "@address": "\n68104\n",
        "@category": "Category: Family Dining\n",
        "@facebook": "",
        "@id": 100,
        "@name": "Sgt. Peffer's\n",
        "@phone": "\n",
        "@storeUrl": "",
        "@url": "http://shoplocalomaha.com/website/info_page.jsp?id=14263",
        "json_class": "Store"
    },
    {
        "@address": "\n68104\n",
        "@category": "Category: Family Dining\n",
        "@facebook": "",
        "@id": 101,
        "@name": "Sgt. Peffer's\n",
        "@phone": "\n",
        "@storeUrl": "",
        "@url": "http://shoplocalomaha.com/website/info_page.jsp?id=14263",
        "json_class": "Store"
    },
    {
        "@address": "\n68104\n",
        "@category": "Category: Family Dining\n",
        "@facebook": "",
        "@id": 102,
        "@name": "Sgt. Peffer's\n",
        "@phone": "\n",
        "@storeUrl": "",
        "@url": "http://shoplocalomaha.com/website/info_page.jsp?id=14263",
        "json_class": "Store"
    },
    {
        "@address": "\n3157 Farnam Street #7112, Omaha, Nebraska 68131\n",
        "@category": "Category: Financial Services\n",
        "@facebook": "",
        "@id": 103,
        "@name": "Callahan Financial Planning Company\n",
        "@phone": "(402) 341-2000\n",
        "@storeUrl": "http://www.callahanplan.com\n",
        "@url": "http://shoplocalomaha.com/website/info_page.jsp?id=10954",
        "json_class": "Store"
    },
    {
        "@address": "\n3157 Farnam Street #7112, Omaha, Nebraska 68131\n",
        "@category": "Category: Financial Services\n",
        "@facebook": "",
        "@id": 104,
        "@name": "Callahan Financial Planning Company\n",
        "@phone": "(402) 341-2000\n",
        "@storeUrl": "http://www.callahanplan.com\n",
        "@url": "http://shoplocalomaha.com/website/info_page.jsp?id=10954",
        "json_class": "Store"
    },
    {
        "@address": "\n3157 Farnam Street #7112, Omaha, Nebraska 68131\n",
        "@category": "Category: Financial Services\n",
        "@facebook": "",
        "@id": 105,
        "@name": "Callahan Financial Planning Company\n",
        "@phone": "(402) 341-2000\n",
        "@storeUrl": "http://www.callahanplan.com\n",
        "@url": "http://shoplocalomaha.com/website/info_page.jsp?id=10954",
        "json_class": "Store"
    },
    {
        "@address": "\nP.O.Box 460871, Papillion, Nebraska 68046\n",
        "@category": "Category: Financial Services\n",
        "@facebook": "",
        "@id": 106,
        "@name": "Comprehensive Financial Services, LLC\n",
        "@phone": "402-596-1958\n",
        "@storeUrl": "http://www.kelsonfinancial.com\n",
        "@url": "http://shoplocalomaha.com/website/info_page.jsp?id=13819",
        "json_class": "Store"
    },
    {
        "@address": "\nP.O.Box 460871, Papillion, Nebraska 68046\n",
        "@category": "Category: Financial Services\n",
        "@facebook": "",
        "@id": 107,
        "@name": "Comprehensive Financial Services, LLC\n",
        "@phone": "402-596-1958\n",
        "@storeUrl": "http://www.kelsonfinancial.com\n",
        "@url": "http://shoplocalomaha.com/website/info_page.jsp?id=13819",
        "json_class": "Store"
    },
    {
        "@address": "\nP.O.Box 460871, Papillion, Nebraska 68046\n",
        "@category": "Category: Financial Services\n",
        "@facebook": "",
        "@id": 108,
        "@name": "Comprehensive Financial Services, LLC\n",
        "@phone": "402-596-1958\n",
        "@storeUrl": "http://www.kelsonfinancial.com\n",
        "@url": "http://shoplocalomaha.com/website/info_page.jsp?id=13819",
        "json_class": "Store"
    },
    {
        "@address": "\n13314 I Street, Omaha, Nebraska 68137\n",
        "@category": "Category: Financial Services\n",
        "@facebook": "",
        "@id": 109,
        "@name": "Integrated Merchant Alliance\n",
        "@phone": "402-719-1511\n",
        "@storeUrl": "http://www.imainfo.com\n",
        "@url": "http://shoplocalomaha.com/website/info_page.jsp?id=10963",
        "json_class": "Store"
    },
    {
        "@address": "\n13314 I Street, Omaha, Nebraska 68137\n",
        "@category": "Category: Financial Services\n",
        "@facebook": "",
        "@id": 110,
        "@name": "Integrated Merchant Alliance\n",
        "@phone": "402-719-1511\n",
        "@storeUrl": "http://www.imainfo.com\n",
        "@url": "http://shoplocalomaha.com/website/info_page.jsp?id=10963",
        "json_class": "Store"
    },
    {
        "@address": "\n13314 I Street, Omaha, Nebraska 68137\n",
        "@category": "Category: Financial Services\n",
        "@facebook": "",
        "@id": 111,
        "@name": "Integrated Merchant Alliance\n",
        "@phone": "402-719-1511\n",
        "@storeUrl": "http://www.imainfo.com\n",
        "@url": "http://shoplocalomaha.com/website/info_page.jsp?id=10963",
        "json_class": "Store"
    },
    {
        "@address": "\n4901 Charles St, Omaha, 68132\n",
        "@category": "Category: Florist\n",
        "@facebook": "",
        "@id": 112,
        "@name": "Janousek Florist\n",
        "@phone": "\n",
        "@storeUrl": "",
        "@url": "http://shoplocalomaha.com/website/info_page.jsp?id=14265",
        "json_class": "Store"
    },
    {
        "@address": "\n4901 Charles St, Omaha, 68132\n",
        "@category": "Category: Florist\n",
        "@facebook": "",
        "@id": 113,
        "@name": "Janousek Florist\n",
        "@phone": "\n",
        "@storeUrl": "",
        "@url": "http://shoplocalomaha.com/website/info_page.jsp?id=14265",
        "json_class": "Store"
    },
    {
        "@address": "\n4901 Charles St, Omaha, 68132\n",
        "@category": "Category: Florist\n",
        "@facebook": "",
        "@id": 114,
        "@name": "Janousek Florist\n",
        "@phone": "\n",
        "@storeUrl": "",
        "@url": "http://shoplocalomaha.com/website/info_page.jsp?id=14265",
        "json_class": "Store"
    },
    {
        "@address": "\n16827 Q Street, Omaha, Nebraska 68135\n",
        "@category": "Category: Gifts\n",
        "@facebook": "",
        "@id": 115,
        "@name": "The Laurel Tree\n",
        "@phone": "\n",
        "@storeUrl": "http://www.mylaureltree.com\n",
        "@url": "http://shoplocalomaha.com/website/info_page.jsp?id=10990",
        "json_class": "Store"
    },
    {
        "@address": "\n16827 Q Street, Omaha, Nebraska 68135\n",
        "@category": "Category: Gifts\n",
        "@facebook": "",
        "@id": 116,
        "@name": "The Laurel Tree\n",
        "@phone": "\n",
        "@storeUrl": "http://www.mylaureltree.com\n",
        "@url": "http://shoplocalomaha.com/website/info_page.jsp?id=10990",
        "json_class": "Store"
    },
    {
        "@address": "\n16827 Q Street, Omaha, Nebraska 68135\n",
        "@category": "Category: Gifts\n",
        "@facebook": "",
        "@id": 117,
        "@name": "The Laurel Tree\n",
        "@phone": "\n",
        "@storeUrl": "http://www.mylaureltree.com\n",
        "@url": "http://shoplocalomaha.com/website/info_page.jsp?id=10990",
        "json_class": "Store"
    },
    {
        "@address": "\n1416 Howard Street , Omaha, Nebraska 68102\n",
        "@category": "Category: Grocery\n",
        "@facebook": "",
        "@id": 118,
        "@name": "Patrick's Market\n",
        "@phone": "(402) 884-1600\n",
        "@storeUrl": "http://www.patricksmarket.com\n",
        "@url": "http://shoplocalomaha.com/website/info_page.jsp?id=10979",
        "json_class": "Store"
    },
    {
        "@address": "\n1416 Howard Street , Omaha, Nebraska 68102\n",
        "@category": "Category: Grocery\n",
        "@facebook": "",
        "@id": 119,
        "@name": "Patrick's Market\n",
        "@phone": "(402) 884-1600\n",
        "@storeUrl": "http://www.patricksmarket.com\n",
        "@url": "http://shoplocalomaha.com/website/info_page.jsp?id=10979",
        "json_class": "Store"
    },
    {
        "@address": "\n1416 Howard Street , Omaha, Nebraska 68102\n",
        "@category": "Category: Grocery\n",
        "@facebook": "",
        "@id": 120,
        "@name": "Patrick's Market\n",
        "@phone": "(402) 884-1600\n",
        "@storeUrl": "http://www.patricksmarket.com\n",
        "@url": "http://shoplocalomaha.com/website/info_page.jsp?id=10979",
        "json_class": "Store"
    },
    {
        "@address": "\n3253 Dodge Street, Omaha, Nebraska 68131\n",
        "@category": "Category: Grocery\n",
        "@facebook": "",
        "@id": 121,
        "@name": "Wohlner's Midtown Neighborhood Grocery & Deli\n",
        "@phone": "(402) 551-6875\n",
        "@storeUrl": "http://www.wohlners.com\n",
        "@url": "http://shoplocalomaha.com/website/info_page.jsp?id=10994",
        "json_class": "Store"
    },
    {
        "@address": "\n3253 Dodge Street, Omaha, Nebraska 68131\n",
        "@category": "Category: Grocery\n",
        "@facebook": "",
        "@id": 122,
        "@name": "Wohlner's Midtown Neighborhood Grocery & Deli\n",
        "@phone": "(402) 551-6875\n",
        "@storeUrl": "http://www.wohlners.com\n",
        "@url": "http://shoplocalomaha.com/website/info_page.jsp?id=10994",
        "json_class": "Store"
    },
    {
        "@address": "\n3253 Dodge Street, Omaha, Nebraska 68131\n",
        "@category": "Category: Grocery\n",
        "@facebook": "",
        "@id": 123,
        "@name": "Wohlner's Midtown Neighborhood Grocery & Deli\n",
        "@phone": "(402) 551-6875\n",
        "@storeUrl": "http://www.wohlners.com\n",
        "@url": "http://shoplocalomaha.com/website/info_page.jsp?id=10994",
        "json_class": "Store"
    },
    {
        "@address": "\n12900 I Street, Omaha, Nebraska 68137\n",
        "@category": "Category: Hardware Store\n",
        "@facebook": "",
        "@id": 124,
        "@name": "Millard Lumber\n",
        "@phone": "(402) 896-2800\n",
        "@storeUrl": "http://www.millardlumber.com\n",
        "@url": "http://shoplocalomaha.com/website/info_page.jsp?id=10975",
        "json_class": "Store"
    },
    {
        "@address": "\n12900 I Street, Omaha, Nebraska 68137\n",
        "@category": "Category: Hardware Store\n",
        "@facebook": "",
        "@id": 125,
        "@name": "Millard Lumber\n",
        "@phone": "(402) 896-2800\n",
        "@storeUrl": "http://www.millardlumber.com\n",
        "@url": "http://shoplocalomaha.com/website/info_page.jsp?id=10975",
        "json_class": "Store"
    },
    {
        "@address": "\n12900 I Street, Omaha, Nebraska 68137\n",
        "@category": "Category: Hardware Store\n",
        "@facebook": "",
        "@id": 126,
        "@name": "Millard Lumber\n",
        "@phone": "(402) 896-2800\n",
        "@storeUrl": "http://www.millardlumber.com\n",
        "@url": "http://shoplocalomaha.com/website/info_page.jsp?id=10975",
        "json_class": "Store"
    },
    {
        "@address": "\n4117 South 120th Street, Omaha, Nebraska 68137\n",
        "@category": "Category: Health and Wellness\n",
        "@facebook": "",
        "@id": 127,
        "@name": "Better Bodies Fitness & Training\n",
        "@phone": "\n",
        "@storeUrl": "http://www.betterbodies-omaha.com\n",
        "@url": "http://shoplocalomaha.com/website/info_page.jsp?id=10950",
        "json_class": "Store"
    },
    {
        "@address": "\n4117 South 120th Street, Omaha, Nebraska 68137\n",
        "@category": "Category: Health and Wellness\n",
        "@facebook": "",
        "@id": 128,
        "@name": "Better Bodies Fitness & Training\n",
        "@phone": "\n",
        "@storeUrl": "http://www.betterbodies-omaha.com\n",
        "@url": "http://shoplocalomaha.com/website/info_page.jsp?id=10950",
        "json_class": "Store"
    },
    {
        "@address": "\n4117 South 120th Street, Omaha, Nebraska 68137\n",
        "@category": "Category: Health and Wellness\n",
        "@facebook": "",
        "@id": 129,
        "@name": "Better Bodies Fitness & Training\n",
        "@phone": "\n",
        "@storeUrl": "http://www.betterbodies-omaha.com\n",
        "@url": "http://shoplocalomaha.com/website/info_page.jsp?id=10950",
        "json_class": "Store"
    },
    {
        "@address": "\n10912 Prairie Brook Road, Omaha, Nebraska \n",
        "@category": "Category: Health and Wellness\n",
        "@facebook": "",
        "@id": 130,
        "@name": "Body Basics\n",
        "@phone": "(402) 397-8866\n",
        "@storeUrl": "http://www.bodybasics.com\n",
        "@url": "http://shoplocalomaha.com/website/info_page.jsp?id=10952",
        "json_class": "Store"
    },
    {
        "@address": "\n10912 Prairie Brook Road, Omaha, Nebraska \n",
        "@category": "Category: Health and Wellness\n",
        "@facebook": "",
        "@id": 131,
        "@name": "Body Basics\n",
        "@phone": "(402) 397-8866\n",
        "@storeUrl": "http://www.bodybasics.com\n",
        "@url": "http://shoplocalomaha.com/website/info_page.jsp?id=10952",
        "json_class": "Store"
    },
    {
        "@address": "\n10912 Prairie Brook Road, Omaha, Nebraska \n",
        "@category": "Category: Health and Wellness\n",
        "@facebook": "",
        "@id": 132,
        "@name": "Body Basics\n",
        "@phone": "(402) 397-8866\n",
        "@storeUrl": "http://www.bodybasics.com\n",
        "@url": "http://shoplocalomaha.com/website/info_page.jsp?id=10952",
        "json_class": "Store"
    },
    {
        "@address": "\n409 North 78th Street, Omaha, Nebraska 68114\n",
        "@category": "Category: Health and Wellness\n",
        "@facebook": "",
        "@id": 133,
        "@name": "Malbar Vision\n",
        "@phone": "\n",
        "@storeUrl": "http://malbar.com\n",
        "@url": "http://shoplocalomaha.com/website/info_page.jsp?id=10970",
        "json_class": "Store"
    },
    {
        "@address": "\n409 North 78th Street, Omaha, Nebraska 68114\n",
        "@category": "Category: Health and Wellness\n",
        "@facebook": "",
        "@id": 134,
        "@name": "Malbar Vision\n",
        "@phone": "\n",
        "@storeUrl": "http://malbar.com\n",
        "@url": "http://shoplocalomaha.com/website/info_page.jsp?id=10970",
        "json_class": "Store"
    },
    {
        "@address": "\n409 North 78th Street, Omaha, Nebraska 68114\n",
        "@category": "Category: Health and Wellness\n",
        "@facebook": "",
        "@id": 135,
        "@name": "Malbar Vision\n",
        "@phone": "\n",
        "@storeUrl": "http://malbar.com\n",
        "@url": "http://shoplocalomaha.com/website/info_page.jsp?id=10970",
        "json_class": "Store"
    },
    {
        "@address": "\n8530 Blondo Street, Omaha, Nebraska 68134\n",
        "@category": "Category: Home and Garden\n",
        "@facebook": "",
        "@id": 136,
        "@name": "Dee-sign Garden Shop and Landscaping\n",
        "@phone": "402-392-1444\n",
        "@storeUrl": "http://www.deesignlandscaping.com\n",
        "@url": "http://shoplocalomaha.com/website/info_page.jsp?id=14464",
        "json_class": "Store"
    },
    {
        "@address": "\n8530 Blondo Street, Omaha, Nebraska 68134\n",
        "@category": "Category: Home and Garden\n",
        "@facebook": "",
        "@id": 137,
        "@name": "Dee-sign Garden Shop and Landscaping\n",
        "@phone": "402-392-1444\n",
        "@storeUrl": "http://www.deesignlandscaping.com\n",
        "@url": "http://shoplocalomaha.com/website/info_page.jsp?id=14464",
        "json_class": "Store"
    },
    {
        "@address": "\n8530 Blondo Street, Omaha, Nebraska 68134\n",
        "@category": "Category: Home and Garden\n",
        "@facebook": "",
        "@id": 138,
        "@name": "Dee-sign Garden Shop and Landscaping\n",
        "@phone": "402-392-1444\n",
        "@storeUrl": "http://www.deesignlandscaping.com\n",
        "@url": "http://shoplocalomaha.com/website/info_page.jsp?id=14464",
        "json_class": "Store"
    },
    {
        "@address": "\n12965 West Center Road., Omaha, Nebraska 68144\n",
        "@category": "Category: Home and Garden\n",
        "@facebook": "",
        "@id": 139,
        "@name": "House of J\n",
        "@phone": "402-778-0650\n",
        "@storeUrl": "http://www.houseofj.com\n",
        "@url": "http://shoplocalomaha.com/website/info_page.jsp?id=10962",
        "json_class": "Store"
    },
    {
        "@address": "\n12965 West Center Road., Omaha, Nebraska 68144\n",
        "@category": "Category: Home and Garden\n",
        "@facebook": "",
        "@id": 140,
        "@name": "House of J\n",
        "@phone": "402-778-0650\n",
        "@storeUrl": "http://www.houseofj.com\n",
        "@url": "http://shoplocalomaha.com/website/info_page.jsp?id=10962",
        "json_class": "Store"
    },
    {
        "@address": "\n12965 West Center Road., Omaha, Nebraska 68144\n",
        "@category": "Category: Home and Garden\n",
        "@facebook": "",
        "@id": 141,
        "@name": "House of J\n",
        "@phone": "402-778-0650\n",
        "@storeUrl": "http://www.houseofj.com\n",
        "@url": "http://shoplocalomaha.com/website/info_page.jsp?id=10962",
        "json_class": "Store"
    },
    {
        "@address": "\n5001 Underwood Ave, Omaha, 68132\n",
        "@category": "Category: Ice Cream\n",
        "@facebook": "",
        "@id": 142,
        "@name": "eCreamery\n",
        "@phone": "\n",
        "@storeUrl": "",
        "@url": "http://shoplocalomaha.com/website/info_page.jsp?id=14269",
        "json_class": "Store"
    },
    {
        "@address": "\n5001 Underwood Ave, Omaha, 68132\n",
        "@category": "Category: Ice Cream\n",
        "@facebook": "",
        "@id": 143,
        "@name": "eCreamery\n",
        "@phone": "\n",
        "@storeUrl": "",
        "@url": "http://shoplocalomaha.com/website/info_page.jsp?id=14269",
        "json_class": "Store"
    },
    {
        "@address": "\n5001 Underwood Ave, Omaha, 68132\n",
        "@category": "Category: Ice Cream\n",
        "@facebook": "",
        "@id": 144,
        "@name": "eCreamery\n",
        "@phone": "\n",
        "@storeUrl": "",
        "@url": "http://shoplocalomaha.com/website/info_page.jsp?id=14269",
        "json_class": "Store"
    },
    {
        "@address": "\n120 Regency Parkway, Omaha, Nebraska 68114\n",
        "@category": "Category: Jewelry & Accessories\n",
        "@facebook": "",
        "@id": 145,
        "@name": "Borsheims\n",
        "@phone": "\n",
        "@storeUrl": "http://www.borsheims.com\n",
        "@url": "http://shoplocalomaha.com/website/info_page.jsp?id=10953",
        "json_class": "Store"
    },
    {
        "@address": "\n120 Regency Parkway, Omaha, Nebraska 68114\n",
        "@category": "Category: Jewelry & Accessories\n",
        "@facebook": "",
        "@id": 146,
        "@name": "Borsheims\n",
        "@phone": "\n",
        "@storeUrl": "http://www.borsheims.com\n",
        "@url": "http://shoplocalomaha.com/website/info_page.jsp?id=10953",
        "json_class": "Store"
    },
    {
        "@address": "\n120 Regency Parkway, Omaha, Nebraska 68114\n",
        "@category": "Category: Jewelry & Accessories\n",
        "@facebook": "",
        "@id": 147,
        "@name": "Borsheims\n",
        "@phone": "\n",
        "@storeUrl": "http://www.borsheims.com\n",
        "@url": "http://shoplocalomaha.com/website/info_page.jsp?id=10953",
        "json_class": "Store"
    },
    {
        "@address": "\n13013 West Center Road, Omaha, Nebraska 68144\n",
        "@category": "Category: Jewelry & Accessories\n",
        "@facebook": "",
        "@id": 148,
        "@name": "Silver of Oz\n",
        "@phone": "402-558-1307\n",
        "@storeUrl": "http://www.silverofoz.com\n",
        "@url": "http://shoplocalomaha.com/website/info_page.jsp?id=10985",
        "json_class": "Store"
    },
    {
        "@address": "\n13013 West Center Road, Omaha, Nebraska 68144\n",
        "@category": "Category: Jewelry & Accessories\n",
        "@facebook": "",
        "@id": 149,
        "@name": "Silver of Oz\n",
        "@phone": "402-558-1307\n",
        "@storeUrl": "http://www.silverofoz.com\n",
        "@url": "http://shoplocalomaha.com/website/info_page.jsp?id=10985",
        "json_class": "Store"
    },
    {
        "@address": "\n13013 West Center Road, Omaha, Nebraska 68144\n",
        "@category": "Category: Jewelry & Accessories\n",
        "@facebook": "",
        "@id": 150,
        "@name": "Silver of Oz\n",
        "@phone": "402-558-1307\n",
        "@storeUrl": "http://www.silverofoz.com\n",
        "@url": "http://shoplocalomaha.com/website/info_page.jsp?id=10985",
        "json_class": "Store"
    },
    {
        "@address": "\n4229 South 120th St, Omaha, Nebraska 68137\n",
        "@category": "Category: Lamps or Lighting\n",
        "@facebook": "",
        "@id": 151,
        "@name": "Schloeman's Lamp Shop\n",
        "@phone": "(402) 556-4506\n",
        "@storeUrl": "",
        "@url": "http://shoplocalomaha.com/website/info_page.jsp?id=10984",
        "json_class": "Store"
    },
    {
        "@address": "\n4229 South 120th St, Omaha, Nebraska 68137\n",
        "@category": "Category: Lamps or Lighting\n",
        "@facebook": "",
        "@id": 152,
        "@name": "Schloeman's Lamp Shop\n",
        "@phone": "(402) 556-4506\n",
        "@storeUrl": "",
        "@url": "http://shoplocalomaha.com/website/info_page.jsp?id=10984",
        "json_class": "Store"
    },
    {
        "@address": "\n4229 South 120th St, Omaha, Nebraska 68137\n",
        "@category": "Category: Lamps or Lighting\n",
        "@facebook": "",
        "@id": 153,
        "@name": "Schloeman's Lamp Shop\n",
        "@phone": "(402) 556-4506\n",
        "@storeUrl": "",
        "@url": "http://shoplocalomaha.com/website/info_page.jsp?id=10984",
        "json_class": "Store"
    },
    {
        "@address": "\n7634 Pierce Street , Omaha, Nebraska 68124\n",
        "@category": "Category: Marketing and Media\n",
        "@facebook": "",
        "@id": 154,
        "@name": "Emspace Group\n",
        "@phone": "402.398.9448\n",
        "@storeUrl": "http://www.emspacegroup.com\n",
        "@url": "http://shoplocalomaha.com/website/info_page.jsp?id=10960",
        "json_class": "Store"
    },
    {
        "@address": "\n7634 Pierce Street , Omaha, Nebraska 68124\n",
        "@category": "Category: Marketing and Media\n",
        "@facebook": "",
        "@id": 155,
        "@name": "Emspace Group\n",
        "@phone": "402.398.9448\n",
        "@storeUrl": "http://www.emspacegroup.com\n",
        "@url": "http://shoplocalomaha.com/website/info_page.jsp?id=10960",
        "json_class": "Store"
    },
    {
        "@address": "\n7634 Pierce Street , Omaha, Nebraska 68124\n",
        "@category": "Category: Marketing and Media\n",
        "@facebook": "",
        "@id": 156,
        "@name": "Emspace Group\n",
        "@phone": "402.398.9448\n",
        "@storeUrl": "http://www.emspacegroup.com\n",
        "@url": "http://shoplocalomaha.com/website/info_page.jsp?id=10960",
        "json_class": "Store"
    },
    {
        "@address": "\nPO Box 241611 , Omaha, Nebraska 68124\n",
        "@category": "Category: Marketing and Media\n",
        "@facebook": "",
        "@id": 157,
        "@name": "MetroMagazine\n",
        "@phone": "402.333.7499\n",
        "@storeUrl": "http://www.spiritofomaha.com\n",
        "@url": "http://shoplocalomaha.com/website/info_page.jsp?id=10974",
        "json_class": "Store"
    },
    {
        "@address": "\nPO Box 241611 , Omaha, Nebraska 68124\n",
        "@category": "Category: Marketing and Media\n",
        "@facebook": "",
        "@id": 158,
        "@name": "MetroMagazine\n",
        "@phone": "402.333.7499\n",
        "@storeUrl": "http://www.spiritofomaha.com\n",
        "@url": "http://shoplocalomaha.com/website/info_page.jsp?id=10974",
        "json_class": "Store"
    },
    {
        "@address": "\nPO Box 241611 , Omaha, Nebraska 68124\n",
        "@category": "Category: Marketing and Media\n",
        "@facebook": "",
        "@id": 159,
        "@name": "MetroMagazine\n",
        "@phone": "402.333.7499\n",
        "@storeUrl": "http://www.spiritofomaha.com\n",
        "@url": "http://shoplocalomaha.com/website/info_page.jsp?id=10974",
        "json_class": "Store"
    },
    {
        "@address": "\nNebraska \n",
        "@category": "Category: Marketing and Media\n",
        "@facebook": "",
        "@id": 160,
        "@name": "Mystery Rose\n",
        "@phone": "402-670-8822\n",
        "@storeUrl": "http://www.mysteryrose.com\n",
        "@url": "http://shoplocalomaha.com/website/info_page.jsp?id=10976",
        "json_class": "Store"
    },
    {
        "@address": "\nNebraska \n",
        "@category": "Category: Marketing and Media\n",
        "@facebook": "",
        "@id": 161,
        "@name": "Mystery Rose\n",
        "@phone": "402-670-8822\n",
        "@storeUrl": "http://www.mysteryrose.com\n",
        "@url": "http://shoplocalomaha.com/website/info_page.jsp?id=10976",
        "json_class": "Store"
    },
    {
        "@address": "\nNebraska \n",
        "@category": "Category: Marketing and Media\n",
        "@facebook": "",
        "@id": 162,
        "@name": "Mystery Rose\n",
        "@phone": "402-670-8822\n",
        "@storeUrl": "http://www.mysteryrose.com\n",
        "@url": "http://shoplocalomaha.com/website/info_page.jsp?id=10976",
        "json_class": "Store"
    },
    {
        "@address": "\nPO Box 483, Omaha, Nebraska 68022\n",
        "@category": "Category: Marketing and Media\n",
        "@facebook": "",
        "@id": 163,
        "@name": "population-we LLC\n",
        "@phone": "402-319-5899\n",
        "@storeUrl": "http://www.population-we.blogspot.com\n",
        "@url": "http://shoplocalomaha.com/website/info_page.jsp?id=11774",
        "json_class": "Store"
    },
    {
        "@address": "\nPO Box 483, Omaha, Nebraska 68022\n",
        "@category": "Category: Marketing and Media\n",
        "@facebook": "",
        "@id": 164,
        "@name": "population-we LLC\n",
        "@phone": "402-319-5899\n",
        "@storeUrl": "http://www.population-we.blogspot.com\n",
        "@url": "http://shoplocalomaha.com/website/info_page.jsp?id=11774",
        "json_class": "Store"
    },
    {
        "@address": "\nPO Box 483, Omaha, Nebraska 68022\n",
        "@category": "Category: Marketing and Media\n",
        "@facebook": "",
        "@id": 165,
        "@name": "population-we LLC\n",
        "@phone": "402-319-5899\n",
        "@storeUrl": "http://www.population-we.blogspot.com\n",
        "@url": "http://shoplocalomaha.com/website/info_page.jsp?id=11774",
        "json_class": "Store"
    },
    {
        "@address": "\nPO Box 7360 , Omaha, Nebraska 68107\n",
        "@category": "Category: Marketing and Media\n",
        "@facebook": "",
        "@id": 166,
        "@name": "The Reader\n",
        "@phone": "402.341.7323\n",
        "@storeUrl": "http://www.thereader.com\n",
        "@url": "http://shoplocalomaha.com/website/info_page.jsp?id=10991",
        "json_class": "Store"
    },
    {
        "@address": "\nPO Box 7360 , Omaha, Nebraska 68107\n",
        "@category": "Category: Marketing and Media\n",
        "@facebook": "",
        "@id": 167,
        "@name": "The Reader\n",
        "@phone": "402.341.7323\n",
        "@storeUrl": "http://www.thereader.com\n",
        "@url": "http://shoplocalomaha.com/website/info_page.jsp?id=10991",
        "json_class": "Store"
    },
    {
        "@address": "\nPO Box 7360 , Omaha, Nebraska 68107\n",
        "@category": "Category: Marketing and Media\n",
        "@facebook": "",
        "@id": 168,
        "@name": "The Reader\n",
        "@phone": "402.341.7323\n",
        "@storeUrl": "http://www.thereader.com\n",
        "@url": "http://shoplocalomaha.com/website/info_page.jsp?id=10991",
        "json_class": "Store"
    },
    {
        "@address": "\n2617 s 167 cir, Omaha, Nebraska 68130\n",
        "@category": "Category: Medical \n",
        "@facebook": "",
        "@id": 169,
        "@name": "Advanced Home Health Care and Nursing\n",
        "@phone": "402-490-3120\n",
        "@storeUrl": "http://www.homehealthcareomaha.com\n",
        "@url": "http://shoplocalomaha.com/website/info_page.jsp?id=13818",
        "json_class": "Store"
    },
    {
        "@address": "\n2617 s 167 cir, Omaha, Nebraska 68130\n",
        "@category": "Category: Medical \n",
        "@facebook": "",
        "@id": 170,
        "@name": "Advanced Home Health Care and Nursing\n",
        "@phone": "402-490-3120\n",
        "@storeUrl": "http://www.homehealthcareomaha.com\n",
        "@url": "http://shoplocalomaha.com/website/info_page.jsp?id=13818",
        "json_class": "Store"
    },
    {
        "@address": "\n2617 s 167 cir, Omaha, Nebraska 68130\n",
        "@category": "Category: Medical \n",
        "@facebook": "",
        "@id": 171,
        "@name": "Advanced Home Health Care and Nursing\n",
        "@phone": "402-490-3120\n",
        "@storeUrl": "http://www.homehealthcareomaha.com\n",
        "@url": "http://shoplocalomaha.com/website/info_page.jsp?id=13818",
        "json_class": "Store"
    },
    {
        "@address": "\n724 South 12th Street , Omaha, Nebraska 68102\n",
        "@category": "Category: Museum\n",
        "@facebook": "",
        "@id": 172,
        "@name": "Bemis Center for Contemporary Arts\n",
        "@phone": "\n",
        "@storeUrl": "http://www.bemiscenter.org\n",
        "@url": "http://shoplocalomaha.com/website/info_page.jsp?id=10949",
        "json_class": "Store"
    },
    {
        "@address": "\n724 South 12th Street , Omaha, Nebraska 68102\n",
        "@category": "Category: Museum\n",
        "@facebook": "",
        "@id": 173,
        "@name": "Bemis Center for Contemporary Arts\n",
        "@phone": "\n",
        "@storeUrl": "http://www.bemiscenter.org\n",
        "@url": "http://shoplocalomaha.com/website/info_page.jsp?id=10949",
        "json_class": "Store"
    },
    {
        "@address": "\n724 South 12th Street , Omaha, Nebraska 68102\n",
        "@category": "Category: Museum\n",
        "@facebook": "",
        "@id": 174,
        "@name": "Bemis Center for Contemporary Arts\n",
        "@phone": "\n",
        "@storeUrl": "http://www.bemiscenter.org\n",
        "@url": "http://shoplocalomaha.com/website/info_page.jsp?id=10949",
        "json_class": "Store"
    },
    {
        "@address": "\n1210 Howard St, Omaha, 68102\n",
        "@category": "Category: Music\n",
        "@facebook": "",
        "@id": 175,
        "@name": "Homer's\n",
        "@phone": "\n",
        "@storeUrl": "",
        "@url": "http://shoplocalomaha.com/website/info_page.jsp?id=14268",
        "json_class": "Store"
    },
    {
        "@address": "\n1210 Howard St, Omaha, 68102\n",
        "@category": "Category: Music\n",
        "@facebook": "",
        "@id": 176,
        "@name": "Homer's\n",
        "@phone": "\n",
        "@storeUrl": "",
        "@url": "http://shoplocalomaha.com/website/info_page.jsp?id=14268",
        "json_class": "Store"
    },
    {
        "@address": "\n1210 Howard St, Omaha, 68102\n",
        "@category": "Category: Music\n",
        "@facebook": "",
        "@id": 177,
        "@name": "Homer's\n",
        "@phone": "\n",
        "@storeUrl": "",
        "@url": "http://shoplocalomaha.com/website/info_page.jsp?id=14268",
        "json_class": "Store"
    },
    {
        "@address": "\n2717 S 108 St , Omaha, Nebraska 68144\n",
        "@category": "Category: Photography & Video\n",
        "@facebook": "",
        "@id": 178,
        "@name": "Rockbrook Camera\n",
        "@phone": "(402) 397-1171\n",
        "@storeUrl": "http://www.rockbrookcamera.com\n",
        "@url": "http://shoplocalomaha.com/website/info_page.jsp?id=10982",
        "json_class": "Store"
    },
    {
        "@address": "\n2717 S 108 St , Omaha, Nebraska 68144\n",
        "@category": "Category: Photography & Video\n",
        "@facebook": "",
        "@id": 179,
        "@name": "Rockbrook Camera\n",
        "@phone": "(402) 397-1171\n",
        "@storeUrl": "http://www.rockbrookcamera.com\n",
        "@url": "http://shoplocalomaha.com/website/info_page.jsp?id=10982",
        "json_class": "Store"
    },
    {
        "@address": "\n2717 S 108 St , Omaha, Nebraska 68144\n",
        "@category": "Category: Photography & Video\n",
        "@facebook": "",
        "@id": 180,
        "@name": "Rockbrook Camera\n",
        "@phone": "(402) 397-1171\n",
        "@storeUrl": "http://www.rockbrookcamera.com\n",
        "@url": "http://shoplocalomaha.com/website/info_page.jsp?id=10982",
        "json_class": "Store"
    },
    {
        "@address": "\n17142 Shirley Street , Omaha, Nebraska 68130\n",
        "@category": "Category: Printing Services\n",
        "@facebook": "",
        "@id": 181,
        "@name": "Printing Plus\n",
        "@phone": "(402) 333-5935\n",
        "@storeUrl": "",
        "@url": "http://shoplocalomaha.com/website/info_page.jsp?id=10981",
        "json_class": "Store"
    },
    {
        "@address": "\n17142 Shirley Street , Omaha, Nebraska 68130\n",
        "@category": "Category: Printing Services\n",
        "@facebook": "",
        "@id": 182,
        "@name": "Printing Plus\n",
        "@phone": "(402) 333-5935\n",
        "@storeUrl": "",
        "@url": "http://shoplocalomaha.com/website/info_page.jsp?id=10981",
        "json_class": "Store"
    },
    {
        "@address": "\n17142 Shirley Street , Omaha, Nebraska 68130\n",
        "@category": "Category: Printing Services\n",
        "@facebook": "",
        "@id": 183,
        "@name": "Printing Plus\n",
        "@phone": "(402) 333-5935\n",
        "@storeUrl": "",
        "@url": "http://shoplocalomaha.com/website/info_page.jsp?id=10981",
        "json_class": "Store"
    },
    {
        "@address": "\nNebraska \n",
        "@category": "Category: Printing Services\n",
        "@facebook": "",
        "@id": 184,
        "@name": "RSVP\n",
        "@phone": "402-991-1881\n",
        "@storeUrl": "http://www.rsvpnotes.com\n",
        "@url": "http://shoplocalomaha.com/website/info_page.jsp?id=10983",
        "json_class": "Store"
    },
    {
        "@address": "\nNebraska \n",
        "@category": "Category: Printing Services\n",
        "@facebook": "",
        "@id": 185,
        "@name": "RSVP\n",
        "@phone": "402-991-1881\n",
        "@storeUrl": "http://www.rsvpnotes.com\n",
        "@url": "http://shoplocalomaha.com/website/info_page.jsp?id=10983",
        "json_class": "Store"
    },
    {
        "@address": "\nNebraska \n",
        "@category": "Category: Printing Services\n",
        "@facebook": "",
        "@id": 186,
        "@name": "RSVP\n",
        "@phone": "402-991-1881\n",
        "@storeUrl": "http://www.rsvpnotes.com\n",
        "@url": "http://shoplocalomaha.com/website/info_page.jsp?id=10983",
        "json_class": "Store"
    },
    {
        "@address": "\n6109 Irvington Road , Omaha, Nebraska 68134\n",
        "@category": "Category: Printing Services\n",
        "@facebook": "",
        "@id": 187,
        "@name": "Stickman Graphics & Signs\n",
        "@phone": "(402) 981-6015\n",
        "@storeUrl": "http://stickmansigns.com\n",
        "@url": "http://shoplocalomaha.com/website/info_page.jsp?id=10988",
        "json_class": "Store"
    },
    {
        "@address": "\n6109 Irvington Road , Omaha, Nebraska 68134\n",
        "@category": "Category: Printing Services\n",
        "@facebook": "",
        "@id": 188,
        "@name": "Stickman Graphics & Signs\n",
        "@phone": "(402) 981-6015\n",
        "@storeUrl": "http://stickmansigns.com\n",
        "@url": "http://shoplocalomaha.com/website/info_page.jsp?id=10988",
        "json_class": "Store"
    },
    {
        "@address": "\n6109 Irvington Road , Omaha, Nebraska 68134\n",
        "@category": "Category: Printing Services\n",
        "@facebook": "",
        "@id": 189,
        "@name": "Stickman Graphics & Signs\n",
        "@phone": "(402) 981-6015\n",
        "@storeUrl": "http://stickmansigns.com\n",
        "@url": "http://shoplocalomaha.com/website/info_page.jsp?id=10988",
        "json_class": "Store"
    },
    {
        "@address": "\n1218 S 119th St, Omaha, Nebraska 68144\n",
        "@category": "Category: Restaurant\n",
        "@facebook": "",
        "@id": 190,
        "@name": "Absolutely Fresh & Shucks Fish House\n",
        "@phone": "(402) 827-4376\n",
        "@storeUrl": "http://www.absolutelyfresh.com\n",
        "@url": "http://shoplocalomaha.com/website/info_page.jsp?id=10946",
        "json_class": "Store"
    },
    {
        "@address": "\n1218 S 119th St, Omaha, Nebraska 68144\n",
        "@category": "Category: Restaurant\n",
        "@facebook": "",
        "@id": 191,
        "@name": "Absolutely Fresh & Shucks Fish House\n",
        "@phone": "(402) 827-4376\n",
        "@storeUrl": "http://www.absolutelyfresh.com\n",
        "@url": "http://shoplocalomaha.com/website/info_page.jsp?id=10946",
        "json_class": "Store"
    },
    {
        "@address": "\n1218 S 119th St, Omaha, Nebraska 68144\n",
        "@category": "Category: Restaurant\n",
        "@facebook": "",
        "@id": 192,
        "@name": "Absolutely Fresh & Shucks Fish House\n",
        "@phone": "(402) 827-4376\n",
        "@storeUrl": "http://www.absolutelyfresh.com\n",
        "@url": "http://shoplocalomaha.com/website/info_page.jsp?id=10946",
        "json_class": "Store"
    },
    {
        "@address": "\n5007 Underwood Ave , Omaha, Nebraska 68132\n",
        "@category": "Category: Restaurant\n",
        "@facebook": "",
        "@id": 193,
        "@name": "Dundee Dell\n",
        "@phone": "(402) 553-9501\n",
        "@storeUrl": "http://www.dundeedell.com\n",
        "@url": "http://shoplocalomaha.com/website/info_page.jsp?id=10958",
        "json_class": "Store"
    },
    {
        "@address": "\n5007 Underwood Ave , Omaha, Nebraska 68132\n",
        "@category": "Category: Restaurant\n",
        "@facebook": "",
        "@id": 194,
        "@name": "Dundee Dell\n",
        "@phone": "(402) 553-9501\n",
        "@storeUrl": "http://www.dundeedell.com\n",
        "@url": "http://shoplocalomaha.com/website/info_page.jsp?id=10958",
        "json_class": "Store"
    },
    {
        "@address": "\n5007 Underwood Ave , Omaha, Nebraska 68132\n",
        "@category": "Category: Restaurant\n",
        "@facebook": "",
        "@id": 195,
        "@name": "Dundee Dell\n",
        "@phone": "(402) 553-9501\n",
        "@storeUrl": "http://www.dundeedell.com\n",
        "@url": "http://shoplocalomaha.com/website/info_page.jsp?id=10958",
        "json_class": "Store"
    },
    {
        "@address": "\n10922 Elm Street , Omaha, Nebraska 68144\n",
        "@category": "Category: Restaurant\n",
        "@facebook": "",
        "@id": 196,
        "@name": "Jaipur Brew House\n",
        "@phone": "(402) 392-7331\n",
        "@storeUrl": "http://www.jaipurbrewhouse.com\n",
        "@url": "http://shoplocalomaha.com/website/info_page.jsp?id=10965",
        "json_class": "Store"
    },
    {
        "@address": "\n10922 Elm Street , Omaha, Nebraska 68144\n",
        "@category": "Category: Restaurant\n",
        "@facebook": "",
        "@id": 197,
        "@name": "Jaipur Brew House\n",
        "@phone": "(402) 392-7331\n",
        "@storeUrl": "http://www.jaipurbrewhouse.com\n",
        "@url": "http://shoplocalomaha.com/website/info_page.jsp?id=10965",
        "json_class": "Store"
    },
    {
        "@address": "\n10922 Elm Street , Omaha, Nebraska 68144\n",
        "@category": "Category: Restaurant\n",
        "@facebook": "",
        "@id": 198,
        "@name": "Jaipur Brew House\n",
        "@phone": "(402) 392-7331\n",
        "@storeUrl": "http://www.jaipurbrewhouse.com\n",
        "@url": "http://shoplocalomaha.com/website/info_page.jsp?id=10965",
        "json_class": "Store"
    },
    {
        "@address": "\n2820 South 123rd Court, Omaha, Nebraska 68144\n",
        "@category": "Category: Restaurant\n",
        "@facebook": "",
        "@id": 199,
        "@name": "Julio's\n",
        "@phone": "402-330-2110\n",
        "@storeUrl": "http://www.julios.com\n",
        "@url": "http://shoplocalomaha.com/website/info_page.jsp?id=10966",
        "json_class": "Store"
    },
    {
        "@address": "\n2820 South 123rd Court, Omaha, Nebraska 68144\n",
        "@category": "Category: Restaurant\n",
        "@facebook": "",
        "@id": 200,
        "@name": "Julio's\n",
        "@phone": "402-330-2110\n",
        "@storeUrl": "http://www.julios.com\n",
        "@url": "http://shoplocalomaha.com/website/info_page.jsp?id=10966",
        "json_class": "Store"
    },
    {
        "@address": "\n2820 South 123rd Court, Omaha, Nebraska 68144\n",
        "@category": "Category: Restaurant\n",
        "@facebook": "",
        "@id": 201,
        "@name": "Julio's\n",
        "@phone": "402-330-2110\n",
        "@storeUrl": "http://www.julios.com\n",
        "@url": "http://shoplocalomaha.com/website/info_page.jsp?id=10966",
        "json_class": "Store"
    },
    {
        "@address": "\n422 South 11th Street, Omaha, Nebraska 68102\n",
        "@category": "Category: Restaurant\n",
        "@facebook": "",
        "@id": 202,
        "@name": "M's Pub\n",
        "@phone": "402-342-2550\n",
        "@storeUrl": "http://www.mspubomaha.com\n",
        "@url": "http://shoplocalomaha.com/website/info_page.jsp?id=10969",
        "json_class": "Store"
    },
    {
        "@address": "\n422 South 11th Street, Omaha, Nebraska 68102\n",
        "@category": "Category: Restaurant\n",
        "@facebook": "",
        "@id": 203,
        "@name": "M's Pub\n",
        "@phone": "402-342-2550\n",
        "@storeUrl": "http://www.mspubomaha.com\n",
        "@url": "http://shoplocalomaha.com/website/info_page.jsp?id=10969",
        "json_class": "Store"
    },
    {
        "@address": "\n422 South 11th Street, Omaha, Nebraska 68102\n",
        "@category": "Category: Restaurant\n",
        "@facebook": "",
        "@id": 204,
        "@name": "M's Pub\n",
        "@phone": "402-342-2550\n",
        "@storeUrl": "http://www.mspubomaha.com\n",
        "@url": "http://shoplocalomaha.com/website/info_page.jsp?id=10969",
        "json_class": "Store"
    },
    {
        "@address": "\n715 North Saddle Creek Road , Omaha, Nebraska 68132\n",
        "@category": "Category: Restaurant\n",
        "@facebook": "",
        "@id": 205,
        "@name": "Mama's Pizza\n",
        "@phone": "(402) 553-9672\n",
        "@storeUrl": "http://mamaspizzaomaha.com\n",
        "@url": "http://shoplocalomaha.com/website/info_page.jsp?id=10972",
        "json_class": "Store"
    },
    {
        "@address": "\n715 North Saddle Creek Road , Omaha, Nebraska 68132\n",
        "@category": "Category: Restaurant\n",
        "@facebook": "",
        "@id": 206,
        "@name": "Mama's Pizza\n",
        "@phone": "(402) 553-9672\n",
        "@storeUrl": "http://mamaspizzaomaha.com\n",
        "@url": "http://shoplocalomaha.com/website/info_page.jsp?id=10972",
        "json_class": "Store"
    },
    {
        "@address": "\n715 North Saddle Creek Road , Omaha, Nebraska 68132\n",
        "@category": "Category: Restaurant\n",
        "@facebook": "",
        "@id": 207,
        "@name": "Mama's Pizza\n",
        "@phone": "(402) 553-9672\n",
        "@storeUrl": "http://mamaspizzaomaha.com\n",
        "@url": "http://shoplocalomaha.com/website/info_page.jsp?id=10972",
        "json_class": "Store"
    },
    {
        "@address": "\n521 S. 13th St., Omaha, Nebraska 68102\n",
        "@category": "Category: Restaurant\n",
        "@facebook": "",
        "@id": 208,
        "@name": "Nicola's Italian Wine & Faire\n",
        "@phone": "402.345.8466\n",
        "@storeUrl": "http://www.nicolasintheoldmarket.com\n",
        "@url": "http://shoplocalomaha.com/website/info_page.jsp?id=11269",
        "json_class": "Store"
    },
    {
        "@address": "\n521 S. 13th St., Omaha, Nebraska 68102\n",
        "@category": "Category: Restaurant\n",
        "@facebook": "",
        "@id": 209,
        "@name": "Nicola's Italian Wine & Faire\n",
        "@phone": "402.345.8466\n",
        "@storeUrl": "http://www.nicolasintheoldmarket.com\n",
        "@url": "http://shoplocalomaha.com/website/info_page.jsp?id=11269",
        "json_class": "Store"
    },
    {
        "@address": "\n521 S. 13th St., Omaha, Nebraska 68102\n",
        "@category": "Category: Restaurant\n",
        "@facebook": "",
        "@id": 210,
        "@name": "Nicola's Italian Wine & Faire\n",
        "@phone": "402.345.8466\n",
        "@storeUrl": "http://www.nicolasintheoldmarket.com\n",
        "@url": "http://shoplocalomaha.com/website/info_page.jsp?id=11269",
        "json_class": "Store"
    },
    {
        "@address": "\n8709 Shamrock Road, Omaha, Nebraska 68114\n",
        "@category": "Category: Retail Store\n",
        "@facebook": "",
        "@id": 211,
        "@name": "Village Needleworks\n",
        "@phone": "402-391-1191\n",
        "@storeUrl": "http://www.vVillageNeedleworks.com\n",
        "@url": "http://shoplocalomaha.com/website/info_page.jsp?id=10992",
        "json_class": "Store"
    },
    {
        "@address": "\n8709 Shamrock Road, Omaha, Nebraska 68114\n",
        "@category": "Category: Retail Store\n",
        "@facebook": "",
        "@id": 212,
        "@name": "Village Needleworks\n",
        "@phone": "402-391-1191\n",
        "@storeUrl": "http://www.vVillageNeedleworks.com\n",
        "@url": "http://shoplocalomaha.com/website/info_page.jsp?id=10992",
        "json_class": "Store"
    },
    {
        "@address": "\n8709 Shamrock Road, Omaha, Nebraska 68114\n",
        "@category": "Category: Retail Store\n",
        "@facebook": "",
        "@id": 213,
        "@name": "Village Needleworks\n",
        "@phone": "402-391-1191\n",
        "@storeUrl": "http://www.vVillageNeedleworks.com\n",
        "@url": "http://shoplocalomaha.com/website/info_page.jsp?id=10992",
        "json_class": "Store"
    },
    {
        "@address": "\n12100 West Center Road, Suite 610, Bel Air Plaza, Omaha, Nebraska 68144\n",
        "@category": "Category: Specialty Shops\n",
        "@facebook": "",
        "@id": 214,
        "@name": "K 9 Lives Rescue Boutique and Gifts\n",
        "@phone": "402-850-1567\n",
        "@storeUrl": "",
        "@url": "http://shoplocalomaha.com/website/info_page.jsp?id=11978",
        "json_class": "Store"
    },
    {
        "@address": "\n12100 West Center Road, Suite 610, Bel Air Plaza, Omaha, Nebraska 68144\n",
        "@category": "Category: Specialty Shops\n",
        "@facebook": "",
        "@id": 215,
        "@name": "K 9 Lives Rescue Boutique and Gifts\n",
        "@phone": "402-850-1567\n",
        "@storeUrl": "",
        "@url": "http://shoplocalomaha.com/website/info_page.jsp?id=11978",
        "json_class": "Store"
    },
    {
        "@address": "\n12100 West Center Road, Suite 610, Bel Air Plaza, Omaha, Nebraska 68144\n",
        "@category": "Category: Specialty Shops\n",
        "@facebook": "",
        "@id": 216,
        "@name": "K 9 Lives Rescue Boutique and Gifts\n",
        "@phone": "402-850-1567\n",
        "@storeUrl": "",
        "@url": "http://shoplocalomaha.com/website/info_page.jsp?id=11978",
        "json_class": "Store"
    },
    {
        "@address": "\n8457 W Center Rd, Omaha, 68124\n",
        "@category": "Category: Sporting Goods\n",
        "@facebook": "",
        "@id": 217,
        "@name": "Canfield's\n",
        "@phone": "\n",
        "@storeUrl": "",
        "@url": "http://shoplocalomaha.com/website/info_page.jsp?id=14264",
        "json_class": "Store"
    },
    {
        "@address": "\n8457 W Center Rd, Omaha, 68124\n",
        "@category": "Category: Sporting Goods\n",
        "@facebook": "",
        "@id": 218,
        "@name": "Canfield's\n",
        "@phone": "\n",
        "@storeUrl": "",
        "@url": "http://shoplocalomaha.com/website/info_page.jsp?id=14264",
        "json_class": "Store"
    },
    {
        "@address": "\n8457 W Center Rd, Omaha, 68124\n",
        "@category": "Category: Sporting Goods\n",
        "@facebook": "",
        "@id": 219,
        "@name": "Canfield's\n",
        "@phone": "\n",
        "@storeUrl": "",
        "@url": "http://shoplocalomaha.com/website/info_page.jsp?id=14264",
        "json_class": "Store"
    },
    {
        "@address": "\n3629 Q St., Omaha, Nebraska 68107\n",
        "@category": "Category: Tattoo & Body Piercing\n",
        "@facebook": "<a class=\"contact_item facebook\" target=\"_blank\" href=\"https://www.facebook.com/pages/Villains-Tattoo/408937550022\">Facebook</a>",
        "@id": 220,
        "@name": "Villains Tattoo\n",
        "@phone": "402-731-0202\n",
        "@storeUrl": "http://www.villainstattoo.com\n",
        "@url": "http://shoplocalomaha.com/website/info_page.jsp?id=13774",
        "json_class": "Store"
    },
    {
        "@address": "\n3629 Q St., Omaha, Nebraska 68107\n",
        "@category": "Category: Tattoo & Body Piercing\n",
        "@facebook": "<a class=\"contact_item facebook\" target=\"_blank\" href=\"https://www.facebook.com/pages/Villains-Tattoo/408937550022\">Facebook</a>",
        "@id": 221,
        "@name": "Villains Tattoo\n",
        "@phone": "402-731-0202\n",
        "@storeUrl": "http://www.villainstattoo.com\n",
        "@url": "http://shoplocalomaha.com/website/info_page.jsp?id=13774",
        "json_class": "Store"
    },
    {
        "@address": "\n3629 Q St., Omaha, Nebraska 68107\n",
        "@category": "Category: Tattoo & Body Piercing\n",
        "@facebook": "<a class=\"contact_item facebook\" target=\"_blank\" href=\"https://www.facebook.com/pages/Villains-Tattoo/408937550022\">Facebook</a>",
        "@id": 222,
        "@name": "Villains Tattoo\n",
        "@phone": "402-731-0202\n",
        "@storeUrl": "http://www.villainstattoo.com\n",
        "@url": "http://shoplocalomaha.com/website/info_page.jsp?id=13774",
        "json_class": "Store"
    },
    {
        "@address": "\n7517 Pacific St, Omaha, Nebraska 68114\n",
        "@category": "Category: Wine & Liquor\n",
        "@facebook": "",
        "@id": 223,
        "@name": "Spirit World\n",
        "@phone": "402-391-8680\n",
        "@storeUrl": "http://www.spiritworldwine.com\n",
        "@url": "http://shoplocalomaha.com/website/info_page.jsp?id=10987",
        "json_class": "Store"
    },
    {
        "@address": "\n7517 Pacific St, Omaha, Nebraska 68114\n",
        "@category": "Category: Wine & Liquor\n",
        "@facebook": "",
        "@id": 224,
        "@name": "Spirit World\n",
        "@phone": "402-391-8680\n",
        "@storeUrl": "http://www.spiritworldwine.com\n",
        "@url": "http://shoplocalomaha.com/website/info_page.jsp?id=10987",
        "json_class": "Store"
    },
    {
        "@address": "\n7517 Pacific St, Omaha, Nebraska 68114\n",
        "@category": "Category: Wine & Liquor\n",
        "@facebook": "",
        "@id": 225,
        "@name": "Spirit World\n",
        "@phone": "402-391-8680\n",
        "@storeUrl": "http://www.spiritworldwine.com\n",
        "@url": "http://shoplocalomaha.com/website/info_page.jsp?id=10987",
        "json_class": "Store"
    },
    {
        "@address": "",
        "@category": "",
        "@facebook": "",
        "@id": 226,
        "@name": "",
        "@phone": "",
        "@storeUrl": "",
        "@url": "http://shoplocalomaha.com/website/info_page.jsp?id=",
        "json_class": "Store"
    },
    {
        "@address": "",
        "@category": "",
        "@facebook": "",
        "@id": 227,
        "@name": "",
        "@phone": "",
        "@storeUrl": "",
        "@url": "http://shoplocalomaha.com/website/info_page.jsp?id=",
        "json_class": "Store"
    },
    {
        "@address": "",
        "@category": "",
        "@facebook": "",
        "@id": 228,
        "@name": "",
        "@phone": "",
        "@storeUrl": "",
        "@url": "http://shoplocalomaha.com/website/info_page.jsp?id=",
        "json_class": "Store"
    }
]
